{
    "openapi": "3.0.2",
    "info": {
      "title": "FastAPI",
      "version": "0.1.0"
    },
    "paths": {
      "/mailings/": {
        "get": {
          "tags": [
            "mailings"
          ],
          "summary": "Read All Mailings",
          "operationId": "read_all_mailings_mailings__get",
          "responses": {
            "200": {
              "description": "Successful Response",
              "content": {
                "application/json": {
                  "schema": {}
                }
              }
            },
            "404": {
              "description": "Not found"
            }
          }
        },
        "put": {
          "tags": [
            "mailings"
          ],
          "summary": "Update Mailing",
          "operationId": "update_mailing_mailings__put",
          "parameters": [
            {
              "required": true,
              "schema": {
                "title": "Mailing Id",
                "type": "integer"
              },
              "name": "mailing_id",
              "in": "query"
            }
          ],
          "requestBody": {
            "content": {
              "application/json": {
                "schema": {
                  "$ref": "#/components/schemas/MailingBase"
                }
              }
            },
            "required": true
          },
          "responses": {
            "200": {
              "description": "Successful Response",
              "content": {
                "application/json": {
                  "schema": {}
                }
              }
            },
            "404": {
              "description": "Not found"
            },
            "422": {
              "description": "Validation Error",
              "content": {
                "application/json": {
                  "schema": {
                    "$ref": "#/components/schemas/HTTPValidationError"
                  }
                }
              }
            }
          }
        },
        "post": {
          "tags": [
            "mailings"
          ],
          "summary": "Create Mailing",
          "operationId": "create_mailing_mailings__post",
          "requestBody": {
            "content": {
              "application/json": {
                "schema": {
                  "$ref": "#/components/schemas/MailingCreate"
                }
              }
            },
            "required": true
          },
          "responses": {
            "201": {
              "description": "Successful Response",
              "content": {
                "application/json": {
                  "schema": {}
                }
              }
            },
            "404": {
              "description": "Not found"
            },
            "422": {
              "description": "Validation Error",
              "content": {
                "application/json": {
                  "schema": {
                    "$ref": "#/components/schemas/HTTPValidationError"
                  }
                }
              }
            }
          }
        },
        "delete": {
          "tags": [
            "mailings"
          ],
          "summary": "Delete Mailing",
          "operationId": "delete_mailing_mailings__delete",
          "parameters": [
            {
              "required": true,
              "schema": {
                "title": "Mailing Id",
                "type": "integer"
              },
              "name": "mailing_id",
              "in": "query"
            }
          ],
          "responses": {
            "200": {
              "description": "Successful Response",
              "content": {
                "application/json": {
                  "schema": {}
                }
              }
            },
            "404": {
              "description": "Not found"
            },
            "422": {
              "description": "Validation Error",
              "content": {
                "application/json": {
                  "schema": {
                    "$ref": "#/components/schemas/HTTPValidationError"
                  }
                }
              }
            }
          }
        }
      },
      "/clients/": {
        "put": {
          "tags": [
            "clients"
          ],
          "summary": "Update Client",
          "operationId": "update_client_clients__put",
          "requestBody": {
            "content": {
              "application/json": {
                "schema": {
                  "$ref": "#/components/schemas/Client"
                }
              }
            },
            "required": true
          },
          "responses": {
            "200": {
              "description": "Successful Response",
              "content": {
                "application/json": {
                  "schema": {}
                }
              }
            },
            "404": {
              "description": "Not found"
            },
            "422": {
              "description": "Validation Error",
              "content": {
                "application/json": {
                  "schema": {
                    "$ref": "#/components/schemas/HTTPValidationError"
                  }
                }
              }
            }
          }
        },
        "post": {
          "tags": [
            "clients"
          ],
          "summary": "Add Client",
          "operationId": "add_client_clients__post",
          "requestBody": {
            "content": {
              "application/json": {
                "schema": {
                  "$ref": "#/components/schemas/ClientCreate"
                }
              }
            },
            "required": true
          },
          "responses": {
            "201": {
              "description": "Successful Response",
              "content": {
                "application/json": {
                  "schema": {}
                }
              }
            },
            "404": {
              "description": "Not found"
            },
            "422": {
              "description": "Validation Error",
              "content": {
                "application/json": {
                  "schema": {
                    "$ref": "#/components/schemas/HTTPValidationError"
                  }
                }
              }
            }
          }
        },
        "delete": {
          "tags": [
            "clients"
          ],
          "summary": "Delete Client",
          "operationId": "delete_client_clients__delete",
          "parameters": [
            {
              "required": true,
              "schema": {
                "title": "Client Id",
                "type": "integer"
              },
              "name": "client_id",
              "in": "query"
            }
          ],
          "responses": {
            "200": {
              "description": "Successful Response",
              "content": {
                "application/json": {
                  "schema": {}
                }
              }
            },
            "404": {
              "description": "Not found"
            },
            "422": {
              "description": "Validation Error",
              "content": {
                "application/json": {
                  "schema": {
                    "$ref": "#/components/schemas/HTTPValidationError"
                  }
                }
              }
            }
          }
        }
      },
      "/messages/": {
        "get": {
          "tags": [
            "messages"
          ],
          "summary": "Read All Messages",
          "operationId": "read_all_messages_messages__get",
          "responses": {
            "200": {
              "description": "Successful Response",
              "content": {
                "application/json": {
                  "schema": {}
                }
              }
            },
            "404": {
              "description": "Not found"
            }
          }
        },
        "post": {
          "tags": [
            "messages"
          ],
          "summary": "Create Message",
          "operationId": "create_message_messages__post",
          "requestBody": {
            "content": {
              "application/json": {
                "schema": {
                  "$ref": "#/components/schemas/MessageCreate"
                }
              }
            },
            "required": true
          },
          "responses": {
            "201": {
              "description": "Successful Response",
              "content": {
                "application/json": {
                  "schema": {}
                }
              }
            },
            "404": {
              "description": "Not found"
            },
            "422": {
              "description": "Validation Error",
              "content": {
                "application/json": {
                  "schema": {
                    "$ref": "#/components/schemas/HTTPValidationError"
                  }
                }
              }
            }
          }
        }
      },
      "/stats/": {
        "get": {
          "tags": [
            "stats"
          ],
          "summary": "Get Stat",
          "operationId": "get_stat_stats__get",
          "responses": {
            "200": {
              "description": "Successful Response",
              "content": {
                "application/json": {
                  "schema": {}
                }
              }
            },
            "404": {
              "description": "Not found"
            }
          }
        }
      },
      "/stats/{status}": {
        "get": {
          "tags": [
            "stats"
          ],
          "summary": "Get Message By Status",
          "operationId": "get_message_by_status_stats__status__get",
          "parameters": [
            {
              "required": true,
              "schema": {
                "title": "Status",
                "type": "string"
              },
              "name": "status",
              "in": "path"
            }
          ],
          "responses": {
            "200": {
              "description": "Successful Response",
              "content": {
                "application/json": {
                  "schema": {}
                }
              }
            },
            "404": {
              "description": "Not found"
            },
            "422": {
              "description": "Validation Error",
              "content": {
                "application/json": {
                  "schema": {
                    "$ref": "#/components/schemas/HTTPValidationError"
                  }
                }
              }
            }
          }
        }
      },
      "/admin/": {
        "get": {
          "tags": [
            "admin"
          ],
          "summary": "Index",
          "operationId": "index_admin__get",
          "responses": {
            "200": {
              "description": "Successful Response",
              "content": {
                "text/html": {
                  "schema": {
                    "type": "string"
                  }
                }
              }
            },
            "418": {
              "description": "Internal Use Only"
            }
          }
        }
      },
      "/admin/show-mailing/{id}": {
        "get": {
          "tags": [
            "admin"
          ],
          "summary": "Show Mailing",
          "operationId": "show_mailing_admin_show_mailing__id__get",
          "parameters": [
            {
              "required": true,
              "schema": {
                "title": "Id",
                "type": "integer"
              },
              "name": "id",
              "in": "path"
            }
          ],
          "responses": {
            "200": {
              "description": "Successful Response",
              "content": {
                "text/html": {
                  "schema": {
                    "type": "string"
                  }
                }
              }
            },
            "418": {
              "description": "Internal Use Only"
            },
            "422": {
              "description": "Validation Error",
              "content": {
                "application/json": {
                  "schema": {
                    "$ref": "#/components/schemas/HTTPValidationError"
                  }
                }
              }
            }
          }
        }
      },
      "/admin/show-client/{id}": {
        "get": {
          "tags": [
            "admin"
          ],
          "summary": "Show Client",
          "operationId": "show_client_admin_show_client__id__get",
          "parameters": [
            {
              "required": true,
              "schema": {
                "title": "Id",
                "type": "integer"
              },
              "name": "id",
              "in": "path"
            }
          ],
          "responses": {
            "200": {
              "description": "Successful Response",
              "content": {
                "text/html": {
                  "schema": {
                    "type": "string"
                  }
                }
              }
            },
            "418": {
              "description": "Internal Use Only"
            },
            "422": {
              "description": "Validation Error",
              "content": {
                "application/json": {
                  "schema": {
                    "$ref": "#/components/schemas/HTTPValidationError"
                  }
                }
              }
            }
          }
        }
      },
      "/admin/edit/{id}": {
        "get": {
          "tags": [
            "admin"
          ],
          "summary": "Edit Mailing",
          "operationId": "edit_mailing_admin_edit__id__get",
          "parameters": [
            {
              "required": true,
              "schema": {
                "title": "Id",
                "type": "integer"
              },
              "name": "id",
              "in": "path"
            }
          ],
          "responses": {
            "200": {
              "description": "Successful Response",
              "content": {
                "text/html": {
                  "schema": {
                    "type": "string"
                  }
                }
              }
            },
            "418": {
              "description": "Internal Use Only"
            },
            "422": {
              "description": "Validation Error",
              "content": {
                "application/json": {
                  "schema": {
                    "$ref": "#/components/schemas/HTTPValidationError"
                  }
                }
              }
            }
          }
        },
        "post": {
          "tags": [
            "admin"
          ],
          "summary": "Edit Mailing Commit",
          "operationId": "edit_mailing_commit_admin_edit__id__post",
          "parameters": [
            {
              "required": true,
              "schema": {
                "title": "Id",
                "type": "integer"
              },
              "name": "id",
              "in": "path"
            }
          ],
          "requestBody": {
            "content": {
              "application/x-www-form-urlencoded": {
                "schema": {
                  "$ref": "#/components/schemas/Body_edit_mailing_commit_admin_edit__id__post"
                }
              }
            },
            "required": true
          },
          "responses": {
            "200": {
              "description": "Successful Response",
              "content": {
                "text/html": {
                  "schema": {
                    "type": "string"
                  }
                }
              }
            },
            "418": {
              "description": "Internal Use Only"
            },
            "422": {
              "description": "Validation Error",
              "content": {
                "application/json": {
                  "schema": {
                    "$ref": "#/components/schemas/HTTPValidationError"
                  }
                }
              }
            }
          }
        }
      },
      "/admin/add": {
        "get": {
          "tags": [
            "admin"
          ],
          "summary": "Add Mailing",
          "operationId": "add_mailing_admin_add_get",
          "responses": {
            "200": {
              "description": "Successful Response",
              "content": {
                "text/html": {
                  "schema": {
                    "type": "string"
                  }
                }
              }
            },
            "418": {
              "description": "Internal Use Only"
            }
          }
        },
        "post": {
          "tags": [
            "admin"
          ],
          "summary": "Add Mailing Commit",
          "operationId": "add_mailing_commit_admin_add_post",
          "requestBody": {
            "content": {
              "application/x-www-form-urlencoded": {
                "schema": {
                  "$ref": "#/components/schemas/Body_add_mailing_commit_admin_add_post"
                }
              }
            },
            "required": true
          },
          "responses": {
            "200": {
              "description": "Successful Response",
              "content": {
                "text/html": {
                  "schema": {
                    "type": "string"
                  }
                }
              }
            },
            "418": {
              "description": "Internal Use Only"
            },
            "422": {
              "description": "Validation Error",
              "content": {
                "application/json": {
                  "schema": {
                    "$ref": "#/components/schemas/HTTPValidationError"
                  }
                }
              }
            }
          }
        }
      },
      "/admin/delete/{id}": {
        "get": {
          "tags": [
            "admin"
          ],
          "summary": "Delete Mailing",
          "operationId": "delete_mailing_admin_delete__id__get",
          "parameters": [
            {
              "required": true,
              "schema": {
                "title": "Id",
                "type": "integer"
              },
              "name": "id",
              "in": "path"
            }
          ],
          "responses": {
            "200": {
              "description": "Successful Response",
              "content": {
                "application/json": {
                  "schema": {}
                }
              }
            },
            "418": {
              "description": "Internal Use Only"
            },
            "422": {
              "description": "Validation Error",
              "content": {
                "application/json": {
                  "schema": {
                    "$ref": "#/components/schemas/HTTPValidationError"
                  }
                }
              }
            }
          }
        }
      }
    },
    "components": {
      "schemas": {
        "Body_add_mailing_commit_admin_add_post": {
          "title": "Body_add_mailing_commit_admin_add_post",
          "required": [
            "text",
            "start",
            "stop",
            "filter"
          ],
          "type": "object",
          "properties": {
            "text": {
              "title": "Text",
              "type": "string"
            },
            "start": {
              "title": "Start",
              "type": "string",
              "format": "date-time"
            },
            "stop": {
              "title": "Stop",
              "type": "string",
              "format": "date-time"
            },
            "filter": {
              "title": "Filter",
              "type": "string"
            }
          }
        },
        "Body_edit_mailing_commit_admin_edit__id__post": {
          "title": "Body_edit_mailing_commit_admin_edit__id__post",
          "required": [
            "text",
            "start",
            "stop",
            "filter"
          ],
          "type": "object",
          "properties": {
            "text": {
              "title": "Text",
              "type": "string"
            },
            "start": {
              "title": "Start",
              "type": "string",
              "format": "date-time"
            },
            "stop": {
              "title": "Stop",
              "type": "string",
              "format": "date-time"
            },
            "filter": {
              "title": "Filter",
              "type": "string"
            }
          }
        },
        "Client": {
          "title": "Client",
          "required": [
            "phone_number",
            "mobile_code",
            "tag",
            "time_zone",
            "id"
          ],
          "type": "object",
          "properties": {
            "phone_number": {
              "title": "Phone number of the client",
              "pattern": "^7\\d{10}$",
              "type": "string"
            },
            "mobile_code": {
              "title": "Mobile code of the client",
              "pattern": "^\\d{3}$",
              "type": "string"
            },
            "tag": {
              "title": "Tag of the client",
              "type": "string"
            },
            "time_zone": {
              "title": "Time zone of the client",
              "exclusiveMaximum": 12,
              "exclusiveMinimum": -12,
              "type": "integer"
            },
            "id": {
              "title": "Id",
              "type": "integer"
            }
          },
          "example": {
            "phone_number": 79001234567,
            "mobile_code": 900,
            "tag": "tag1",
            "time_zone": 3
          }
        },
        "ClientCreate": {
          "title": "ClientCreate",
          "required": [
            "phone_number",
            "mobile_code",
            "tag",
            "time_zone"
          ],
          "type": "object",
          "properties": {
            "phone_number": {
              "title": "Phone number of the client",
              "pattern": "^7\\d{10}$",
              "type": "string"
            },
            "mobile_code": {
              "title": "Mobile code of the client",
              "pattern": "^\\d{3}$",
              "type": "string"
            },
            "tag": {
              "title": "Tag of the client",
              "type": "string"
            },
            "time_zone": {
              "title": "Time zone of the client",
              "exclusiveMaximum": 12,
              "exclusiveMinimum": -12,
              "type": "integer"
            }
          },
          "example": {
            "phone_number": 79001234567,
            "mobile_code": 900,
            "tag": "tag1",
            "time_zone": 3
          }
        },
        "HTTPValidationError": {
          "title": "HTTPValidationError",
          "type": "object",
          "properties": {
            "detail": {
              "title": "Detail",
              "type": "array",
              "items": {
                "$ref": "#/components/schemas/ValidationError"
              }
            }
          }
        },
        "MailingBase": {
          "title": "MailingBase",
          "required": [
            "start",
            "stop",
            "text",
            "filter"
          ],
          "type": "object",
          "properties": {
            "start": {
              "title": "Start of the mailing",
              "type": "string",
              "format": "date-time"
            },
            "stop": {
              "title": "End of the mailing",
              "type": "string",
              "format": "date-time"
            },
            "text": {
              "title": "Text of the mailing",
              "maxLength": 1000,
              "minLength": 1,
              "type": "string"
            },
            "filter": {
              "title": "Filter of the mailing",
              "type": "object",
              "additionalProperties": {
                "type": "array",
                "items": {}
              }
            }
          },
          "example": {
            "start": "2022-04-03T14:44:36.738879",
            "stop": "2022-04-04T14:44:36.738897",
            "text": "Text of the mailing",
            "filter": {
              "mobile_code": [
                900
              ],
              "tags": [
                "tag1",
                "tag2"
              ]
            }
          }
        },
        "MailingCreate": {
          "title": "MailingCreate",
          "required": [
            "start",
            "stop",
            "text",
            "filter"
          ],
          "type": "object",
          "properties": {
            "start": {
              "title": "Start of the mailing",
              "type": "string",
              "format": "date-time"
            },
            "stop": {
              "title": "End of the mailing",
              "type": "string",
              "format": "date-time"
            },
            "text": {
              "title": "Text of the mailing",
              "maxLength": 1000,
              "minLength": 1,
              "type": "string"
            },
            "filter": {
              "title": "Filter of the mailing",
              "type": "object",
              "additionalProperties": {
                "type": "array",
                "items": {}
              }
            }
          },
          "example": {
            "start": "2022-04-03T14:44:36.738879",
            "stop": "2022-04-04T14:44:36.738897",
            "text": "Text of the mailing",
            "filter": {
              "mobile_code": [
                900
              ],
              "tags": [
                "tag1",
                "tag2"
              ]
            }
          }
        },
        "MessageCreate": {
          "title": "MessageCreate",
          "required": [
            "msg_datetime",
            "msg_status",
            "mailing_id",
            "client_id"
          ],
          "type": "object",
          "properties": {
            "msg_datetime": {
              "title": "Date time of the message",
              "type": "string",
              "format": "date-time"
            },
            "msg_status": {
              "title": "Status of the message",
              "type": "string"
            },
            "mailing_id": {
              "title": "Mailing id of the message",
              "type": "integer"
            },
            "client_id": {
              "title": "Client id of the message",
              "type": "integer"
            }
          },
          "example": {
            "msg_datetime": "2022-04-03T14:44:36.770621",
            "msg_status": "delivered",
            "mailing_id": 1,
            "client_id": 1
          }
        },
        "ValidationError": {
          "title": "ValidationError",
          "required": [
            "loc",
            "msg",
            "type"
          ],
          "type": "object",
          "properties": {
            "loc": {
              "title": "Location",
              "type": "array",
              "items": {
                "type": "string"
              }
            },
            "msg": {
              "title": "Message",
              "type": "string"
            },
            "type": {
              "title": "Error Type",
              "type": "string"
            }
          }
        }
      }
    }
  }